YearsExperience,Salary,Location,Education,Gender,Interview Score
1.1,39343,Austin,High School,Male,70
1.3,42530,Seattle,Undergrad,Female,88
1.5,44678,Seattle,Graduate,Male,86
1.5,45245,Bay Area,Graduate,Male,90
2,49529,Atlanta,Undergrad,Male,60
2.1,51350,Austin,Undergrad,Female,80
2.2,51938,Atlanta,Graduate,Female,80
2.6,56642,Bay Area,Graduate,Male,88
2.8,58349,Bay Area,Undergrad,Male,60
2.8,57893,Atlanta,High School,Female,90
3,60283,Seattle,Graduate,Female,60
3.2,62394,Austin,Undergrad,Male,70
3.6,65894,Austin,Graduate,Male,70
3.7,66894,Bay Area,Gradute,Female,70
3.9,70529,Atlanta,Undergrad,Male,80
4,69427,Austin,Undergrad,Female,90
4,71846,Bay Area,Graduate,Female,90
4.1,70359,Seattle,Graduate,Male,60
4.3,73204,Bay Area,Undergrad,Female,90
4.5,74294,Seattle,High School,Female,80
4.9,79274,Bay Area,Graduate,Male,80
5.1,80923,Austin,Graduate,Male,90
5.3,83088,Atlanta,Graduate,Male,70
5.7,87088,Bay Area,Undergrad,Female,80
5.9,89234,Atlanta,High School,Female,90
6,89345,Austin,High School,Male,90
6.4,93459,Seattle,Graduate,Male,90
6.8,99234,Bay Area,Undergrad,Female,60
7.3,103525,Atlanta,Undergrad,Male,65
7.6,105639,Bay Area,Undergrad,Male,60
7.9,109458,Austin,Graduate,Female,80
8.2,113812,Bay Area,Graduate,Male,90
8.5,117693,Atlanta,Undergrad,Female,80
8.5,114503,Seattle,Undergrad,Female,90
9,120485,Seattle,Graduate,Male,70
9.5,126930,Bay Area,Graduate,Male,70
9.6,126395,Atlanta,Undergrad,Female,80
9.6,127405,Austin,Undergrad,Female,80
10.3,130583,Seattle,Graduate,Male,90
10.5,132493,Bay Area,Graduate,Male,70
11,131245,Bay Area,Undergrad,Female,90
11.3,129377,Austin,High School,Female,80
11.8,132849,Atlanta,High School,Male,80
12,134294,Seattle,Graduate,Male,80
12.5,134827,Bay Area,Graduate,Female,60
13,135822,Atlanta,Undergrad,Female,70
15.4,137900,Austin,Undergrad,Male,80
15.6,138400,Atlanta,High School,Male,80
16.2,139720,Bay Area,Undergrad,Male,80
17,139676,Seattle,Graduate,Female,70
18,141560,Bay Area,Graduate,Male,80
19.3,140958,Austin,Undergrad,Female,90
20,140284,Atlanta,Graduate,Female,90
22,142800,Seattle,Undergrad,Male,100
22.8,143600,Seattle,Graduate,Male,80
24,145830,Bay Area,Graduate,Female,70
25,144390,Seattle,Undergrad,Male,80
28,148394,Atlanta,Undergrad,Male,80
30,145830,Austin,Graduate,Female,90
32,150390,Seattle,High School,Male,60
34,152395,Seattle,Graduate,Female,80
37,153456,Atlanta,Graduate,Male,90
40.5,153900,Austin,Undergrad,Male,70
42.3,154000,Bay Area,Graduate,Male,89