YearsExperience,Interview Score,Salary
1.1,70,39343
1.3,88,42530
1.4,90,43902
1.5,65,38678
1.4,92,45000
1.5,68,35900
1.5,73,36245
1.7,96,51900
1.7,84,47900
1.8,97,52903
2,87,49529
2.4,62,39028
2.1,89,51350
2.1,83,49000
2.1,69,45000
2.2,73,48938
2.6,97,56642
2.8,83,51349
2.8,97,57893
3,95,58283
3.2,73,56920
3.2,86,67394
3.6,82,58894
3.7,93,64894
3.9,75,70529
3.9,98,75900
4,88,73427
4,83,69833
4,79,65846
4.1,82,69359
4.3,93,75204
4.5,87,72294
4.9,84,79274
5.7,71,87302
5.2,95,90883
5.1,92,86923
5.3,68,73088
5.8,89,79400
5.9,92,84234
6,98,89345
6.4,74,83459
6.1,93,78299
6.3,89,69388
6.2,99,89342
6.8,97,99234
7.1,85,90000
7.3,86,94300
7.3,74,87900
7.3,100,123000
7.3,68,78400
7.3,94,103525
7.6,83,101639
7.8,64,80900
7.9,89,109458
8,93,117940
8,84,99388
8.2,88,103812
8.7,73,106344
8.4,63,89083
8.3,84,101355
8.3,91,119487
8.5,64,88500
8.5,89,117693
8.5,83,112503
9,86,120485
9.4,84,129387
9.5,82,126930
9.6,74,116395
9.8,94,130482
9.6,97,127405
10.3,92,135583
10.5,88,132493
10.6,83,110900
10.7,92,135900
10.3,81,94535
9.7,73,97087
9.5,68,84093